{
    "swagger": "2.0",
    "info": {
        "description": "Some custom description of API.",
        "version": "API TOS",
        "title": "Product API",
        "termsOfService": "Terms of service",
        "contact": {
            "name": "John Doe",
            "url": "www.example.com",
            "email": "myeaddress@company.com"
        },
        "license": {
            "name": "License of API",
            "url": "API license URL"
        }
    },
    "host": "localhost:8080",
    "basePath": "/",
    "tags": [
        {
            "name": "basic-error-controller",
            "description": "Basic Error Controller"
        },
        {
            "name": "custom-controller",
            "description": "Custom Controller"
        },
        {
            "name": "product-controller",
            "description": "Product Controller"
        }
    ],
    "paths": {
        "/custom": {
            "post": {
                "tags": [
                    "custom-controller"
                ],
                "summary": "custom",
                "operationId": "customUsingPOST",
                "consumes": [
                    "application/json"
                ],
                "produces": [
                    "*/*"
                ],
                "responses": {
                    "200": {
                        "description": "OK",
                        "schema": {
                            "type": "string"
                        }
                    },
                    "201": {
                        "description": "Created"
                    },
                    "401": {
                        "description": "Unauthorized"
                    },
                    "403": {
                        "description": "Forbidden"
                    },
                    "404": {
                        "description": "Not Found"
                    }
                }
            }
        },
        "/error": {
            "get": {
                "tags": [
                    "basic-error-controller"
                ],
                "summary": "error",
                "operationId": "errorUsingGET",
                "produces": [
                    "*/*"
                ],
                "responses": {
                    "200": {
                        "description": "OK",
                        "schema": {
                            "type": "object",
                            "additionalProperties": {
                                "type": "object"
                            }
                        }
                    },
                    "401": {
                        "description": "Unauthorized"
                    },
                    "403": {
                        "description": "Forbidden"
                    },
                    "404": {
                        "description": "Not Found"
                    }
                }
            },
            "head": {
                "tags": [
                    "basic-error-controller"
                ],
                "summary": "error",
                "operationId": "errorUsingHEAD",
                "consumes": [
                    "application/json"
                ],
                "produces": [
                    "*/*"
                ],
                "responses": {
                    "200": {
                        "description": "OK",
                        "schema": {
                            "type": "object",
                            "additionalProperties": {
                                "type": "object"
                            }
                        }
                    },
                    "204": {
                        "description": "No Content"
                    },
                    "401": {
                        "description": "Unauthorized"
                    },
                    "403": {
                        "description": "Forbidden"
                    }
                }
            },
            "post": {
                "tags": [
                    "basic-error-controller"
                ],
                "summary": "error",
                "operationId": "errorUsingPOST",
                "consumes": [
                    "application/json"
                ],
                "produces": [
                    "*/*"
                ],
                "responses": {
                    "200": {
                        "description": "OK",
                        "schema": {
                            "type": "object",
                            "additionalProperties": {
                                "type": "object"
                            }
                        }
                    },
                    "201": {
                        "description": "Created"
                    },
                    "401": {
                        "description": "Unauthorized"
                    },
                    "403": {
                        "description": "Forbidden"
                    },
                    "404": {
                        "description": "Not Found"
                    }
                }
            },
            "put": {
                "tags": [
                    "basic-error-controller"
                ],
                "summary": "error",
                "operationId": "errorUsingPUT",
                "consumes": [
                    "application/json"
                ],
                "produces": [
                    "*/*"
                ],
                "responses": {
                    "200": {
                        "description": "OK",
                        "schema": {
                            "type": "object",
                            "additionalProperties": {
                                "type": "object"
                            }
                        }
                    },
                    "201": {
                        "description": "Created"
                    },
                    "401": {
                        "description": "Unauthorized"
                    },
                    "403": {
                        "description": "Forbidden"
                    },
                    "404": {
                        "description": "Not Found"
                    }
                }
            },
            "delete": {
                "tags": [
                    "basic-error-controller"
                ],
                "summary": "error",
                "operationId": "errorUsingDELETE",
                "produces": [
                    "*/*"
                ],
                "responses": {
                    "200": {
                        "description": "OK",
                        "schema": {
                            "type": "object",
                            "additionalProperties": {
                                "type": "object"
                            }
                        }
                    },
                    "204": {
                        "description": "No Content"
                    },
                    "401": {
                        "description": "Unauthorized"
                    },
                    "403": {
                        "description": "Forbidden"
                    }
                }
            },
            "options": {
                "tags": [
                    "basic-error-controller"
                ],
                "summary": "error",
                "operationId": "errorUsingOPTIONS",
                "consumes": [
                    "application/json"
                ],
                "produces": [
                    "*/*"
                ],
                "responses": {
                    "200": {
                        "description": "OK",
                        "schema": {
                            "type": "object",
                            "additionalProperties": {
                                "type": "object"
                            }
                        }
                    },
                    "204": {
                        "description": "No Content"
                    },
                    "401": {
                        "description": "Unauthorized"
                    },
                    "403": {
                        "description": "Forbidden"
                    }
                }
            },
            "patch": {
                "tags": [
                    "basic-error-controller"
                ],
                "summary": "error",
                "operationId": "errorUsingPATCH",
                "consumes": [
                    "application/json"
                ],
                "produces": [
                    "*/*"
                ],
                "responses": {
                    "200": {
                        "description": "OK",
                        "schema": {
                            "type": "object",
                            "additionalProperties": {
                                "type": "object"
                            }
                        }
                    },
                    "204": {
                        "description": "No Content"
                    },
                    "401": {
                        "description": "Unauthorized"
                    },
                    "403": {
                        "description": "Forbidden"
                    }
                }
            }
        },
        "/product": {
            "get": {
                "tags": [
                    "product-controller"
                ],
                "summary": "getProduct",
                "operationId": "getProductUsingGET",
                "produces": [
                    "*/*"
                ],
                "parameters": [
                    {
                        "name": "productId",
                        "in": "query",
                        "description": "productId",
                        "required": true,
                        "type": "string"
                    }
                ],
                "responses": {
                    "200": {
                        "description": "OK",
                        "schema": {
                            "$ref": "#/definitions/Product"
                        }
                    },
                    "401": {
                        "description": "Unauthorized"
                    },
                    "403": {
                        "description": "Forbidden"
                    },
                    "404": {
                        "description": "Not Found"
                    }
                }
            }
        }
    },
    "definitions": {
        "ModelAndView": {
            "type": "object",
            "properties": {
                "empty": {
                    "type": "boolean"
                },
                "model": {
                    "type": "object"
                },
                "modelMap": {
                    "type": "object",
                    "additionalProperties": {
                        "type": "object"
                    }
                },
                "reference": {
                    "type": "boolean"
                },
                "status": {
                    "type": "string",
                    "enum": [
                        "100",
                        "101",
                        "102",
                        "103",
                        "200",
                        "201",
                        "202",
                        "203",
                        "204",
                        "205",
                        "206",
                        "207",
                        "208",
                        "226",
                        "300",
                        "301",
                        "302",
                        "303",
                        "304",
                        "305",
                        "307",
                        "308",
                        "400",
                        "401",
                        "402",
                        "403",
                        "404",
                        "405",
                        "406",
                        "407",
                        "408",
                        "409",
                        "410",
                        "411",
                        "412",
                        "413",
                        "414",
                        "415",
                        "416",
                        "417",
                        "418",
                        "419",
                        "420",
                        "421",
                        "422",
                        "423",
                        "424",
                        "426",
                        "428",
                        "429",
                        "431",
                        "451",
                        "500",
                        "501",
                        "502",
                        "503",
                        "504",
                        "505",
                        "506",
                        "507",
                        "508",
                        "509",
                        "510",
                        "511"
                    ]
                },
                "view": {
                    "$ref": "#/definitions/View"
                },
                "viewName": {
                    "type": "string"
                }
            },
            "title": "ModelAndView"
        },
        "Product": {
            "type": "object",
            "required": [
                "id"
            ],
            "properties": {
                "content": {
                    "type": "string"
                },
                "id": {
                    "type": "integer",
                    "format": "int64",
                    "description": "Product Id",
                    "allowEmptyValue": false
                }
            },
            "title": "Product",
            "description": "Prototype for product"
        },
        "View": {
            "type": "object",
            "properties": {
                "contentType": {
                    "type": "string"
                }
            },
            "title": "View"
        }
    }
}